{
  "project_info": {
    "project_number": "447608618345",
    "firebase_url": "https://studio-zanny.firebaseio.com",
    "project_id": "studio-zanny",
    "storage_bucket": "studio-zanny.appspot.com"
  },
  "client": [
    {
      "client_info": {
        "mobilesdk_app_id": "1:447608618345:android:ca247325ad59503b",
        "android_client_info": {
          "package_name": "zmbzz.sinnc.zanny"
        }
      },
      "oauth_client": [
        {
          "client_id": "447608618345-vh334a1e77vo4rkt2u1420fufmlnkidb.apps.googleusercontent.com",
          "client_type": 3
        }
      ],
      "api_key": [
        {
          "current_key": "AIzaSyDYXAQt6UnLpEgdvLKPMcVzJI8dzvkL5DA"
        }
      ],
      "services": {
        "analytics_service": {
          "status": 1
        },
        "appinvite_service": {
          "status": 1,
          "other_platform_oauth_client": []
        },
        "ads_service": {
          "status": 2
        }
      }
    }
  ],
  "configuration_version": "1"
}